<mxfile host="app.diagrams.net" modified="2021-11-12T16:42:32.132Z" agent="5.0 (Windows)" etag="NzMFlSPblsAbBSET_Eyt" version="15.7.3" type="gitlab">
  <diagram id="btSlA3qSQXFAgwjCbRH0" name="Page-1">
    <mxGraphModel dx="858" dy="493" grid="1" gridSize="10" guides="1" tooltips="1" connect="1" arrows="1" fold="1" page="1" pageScale="1" pageWidth="850" pageHeight="1100" math="0" shadow="0">
      <root>
        <mxCell id="0" />
        <mxCell id="1" parent="0" />
        <mxCell id="vvL-l85_weImjfnOsW_9-2" value="frame" style="shape=umlFrame;whiteSpace=wrap;html=1;" parent="1" vertex="1">
          <mxGeometry x="125" y="80" width="525" height="490" as="geometry" />
        </mxCell>
        <mxCell id="vvL-l85_weImjfnOsW_9-4" value=":Bsp.c" style="shape=umlLifeline;perimeter=lifelinePerimeter;whiteSpace=wrap;html=1;container=1;collapsible=0;recursiveResize=0;outlineConnect=0;" parent="1" vertex="1">
          <mxGeometry x="200" y="115" width="100" height="455" as="geometry" />
        </mxCell>
        <mxCell id="vvL-l85_weImjfnOsW_9-5" value="&lt;div&gt;Control.c&lt;/div&gt;" style="shape=umlLifeline;perimeter=lifelinePerimeter;whiteSpace=wrap;html=1;container=1;collapsible=0;recursiveResize=0;outlineConnect=0;size=40;" parent="1" vertex="1">
          <mxGeometry x="330" y="115" width="100" height="455" as="geometry" />
        </mxCell>
        <mxCell id="Cv0_1_ftAp0RDuxTxSEq-1" value="&lt;div&gt;&lt;br&gt;&lt;/div&gt;&lt;div&gt;CloudCommand&lt;/div&gt;&lt;div&gt;Parser.c&lt;br&gt;&lt;/div&gt;&lt;div&gt;&lt;br&gt;&lt;/div&gt;" style="shape=umlLifeline;perimeter=lifelinePerimeter;whiteSpace=wrap;html=1;container=1;collapsible=0;recursiveResize=0;outlineConnect=0;size=40;" vertex="1" parent="1">
          <mxGeometry x="460" y="115" width="100" height="455" as="geometry" />
        </mxCell>
      </root>
    </mxGraphModel>
  </diagram>
</mxfile>
